Layer Metadata — data_citation • VicmapR
…
#>  7 NAME          NAME             O          N      VARCHAR2(5~ NA              
#>  8 NAMED_FEATUR~ NFEAT_ID         O          N      NUMBER(9)   NA              
#>  9 ORIGIN        ORIGIN           O          N      VARCHAR2(1) VMREFTAB.HY_ORI~
#> 10 PFI           PFI              M          Y      NUMBER(9)   NA              
#> 11 SUPERCEDED_P~ SUPER_PFI        O          N      NUMBER(9)   NA              
#> 12 UFI           UFI              O          N      NUMBER(9)   NA              
#> 13 USAGE         USAGE            O          N      VARCHAR2(1) VMREFTAB.HY_USA~
#> # ... with 1 more variable: Comments <chr>
# }
# \donttest{
try(
get_metadata(vicmap_query(layer = "datavic:VMHYDRO_WATERCOURSE_DRAIN"))
)
#> [[1]]
#> # A tibble: 30 x 2
#>    `Metadata Name`           Description                                        
#>    <chr>                     <chr>                                              
#>  1 Resource Name             "HY_WATERCOURSE"                                   
#>  2 Title                     "Watercourse Network 1:25,000 - Vicmap Hydro"      
#>  3 Anzlic Id                 "ANZVI0803002490\r\n\t\t\t\t\t\t\r\n\t\t\t\t\t\t\t~
#>  4 Custodian                 "Department of Environment, Land, Water & Planning"
#>  5 Owner                     "Department of Environment, Land, Water & Planning"
#>  6 Jurisdiction              "Victoria"                                         
#>  7 Abstract                  "This layer is part of Vicmap Hydro and contains l~
#>  8 Search Words              "LAND Topography, AGRICULTURE Irrigation, WATER Hy~
#>  9 Purpose                   "Vicmap Hydro provides an accurate representation ~
#> 10 Geographic Extent Polygon  NA                                                
#> # ... with 20 more rows
…
